#1	02-Sep-2014 21:14:54	0                 
-4.14e-007	0
-4.09e-007	0
-4.04e-007	0
-3.99e-007	0
-3.94e-007	1
-3.89e-007	0
-3.84e-007	1
-3.79e-007	0
-3.74e-007	0
-3.69e-007	0
-3.64e-007	0
-3.59e-007	0
-3.54e-007	0
-3.49e-007	0
-3.44e-007	2
-3.39e-007	1
-3.34e-007	0
-3.29e-007	1
-3.24e-007	0
-3.19e-007	0
-3.14e-007	1
-3.09e-007	0
-3.04e-007	1
-2.99e-007	0
-2.94e-007	1
-2.89e-007	1
-2.84e-007	2
-2.79e-007	0
-2.74e-007	0
-2.69e-007	1
-2.64e-007	0
-2.59e-007	1
-2.54e-007	1
-2.49e-007	0
-2.44e-007	1
-2.39e-007	0
-2.34e-007	1
-2.29e-007	1
-2.24e-007	0
-2.19e-007	3
-2.14e-007	1
-2.09e-007	2
-2.04e-007	2
-1.99e-007	1
-1.94e-007	2
-1.89e-007	2
-1.84e-007	0
-1.79e-007	4
-1.74e-007	6
-1.69e-007	3
-1.64e-007	6
-1.59e-007	7
-1.54e-007	10
-1.49e-007	6
-1.44e-007	21
-1.39e-007	17
-1.34e-007	30
-1.29e-007	58
-1.24e-007	84
-1.19e-007	141
-1.14e-007	190
-1.09e-007	210
-1.04e-007	175
-9.9e-008	95
-9.4e-008	19
-8.9e-008	6
-8.4e-008	4
-7.9e-008	4
-7.4e-008	6
-6.9e-008	0
-6.4e-008	1
-5.9e-008	2
-5.4e-008	1
-4.9e-008	6
-4.4e-008	2
-3.9e-008	3
-3.4e-008	2
-2.9e-008	4
-2.4e-008	1
-1.9e-008	2
-1.4e-008	15
-9e-009	25
-4e-009	335
1e-009	0
6e-009	0
1.1e-008	0
1.6e-008	0
2.1e-008	0
2.6e-008	0
3.1e-008	0
3.6e-008	0
4.1e-008	0
4.6e-008	0
5.1e-008	0
5.6e-008	0
6.1e-008	0
6.6e-008	0
7.1e-008	0
7.6e-008	0
8.1e-008	0
