#1	02-Sep-2014 22:11:26	0                 
-3.67e-007	0
-3.62e-007	0
-3.57e-007	0
-3.52e-007	0
-3.47e-007	1
-3.42e-007	1
-3.37e-007	0
-3.32e-007	0
-3.27e-007	0
-3.22e-007	1
-3.17e-007	0
-3.12e-007	0
-3.07e-007	0
-3.02e-007	0
-2.97e-007	0
-2.92e-007	0
-2.87e-007	3
-2.82e-007	0
-2.77e-007	0
-2.72e-007	0
-2.67e-007	0
-2.62e-007	1
-2.57e-007	0
-2.52e-007	0
-2.47e-007	0
-2.42e-007	2
-2.37e-007	3
-2.32e-007	1
-2.27e-007	1
-2.22e-007	0
-2.17e-007	1
-2.12e-007	1
-2.07e-007	1
-2.02e-007	0
-1.97e-007	0
-1.92e-007	1
-1.87e-007	2
-1.82e-007	2
-1.77e-007	2
-1.72e-007	2
-1.67e-007	1
-1.62e-007	3
-1.57e-007	2
-1.52e-007	3
-1.47e-007	9
-1.42e-007	4
-1.37e-007	7
-1.32e-007	8
-1.27e-007	13
-1.22e-007	20
-1.17e-007	20
-1.12e-007	50
-1.07e-007	82
-1.02e-007	153
-9.7e-008	226
-9.2e-008	251
-8.7e-008	176
-8.2e-008	57
-7.7e-008	7
-7.2e-008	5
-6.7e-008	7
-6.2e-008	2
-5.7e-008	1
-5.2e-008	3
-4.7e-008	2
-4.2e-008	3
-3.7e-008	6
-3.2e-008	1
-2.7e-008	3
-2.2e-008	2
-1.7e-008	4
-1.2e-008	14
-7e-009	59
-2e-009	300
3e-009	0
8e-009	0
1.3e-008	0
1.8e-008	0
2.3e-008	0
2.8e-008	0
3.3e-008	0
3.8e-008	0
4.3e-008	0
4.8e-008	0
5.3e-008	0
5.8e-008	0
6.3e-008	0
6.8e-008	0
7.3e-008	0
7.8e-008	0
8.3e-008	0
8.8e-008	0
9.3e-008	0
9.8e-008	0
1.03e-007	0
1.08e-007	0
1.13e-007	0
1.18e-007	0
1.23e-007	0
1.28e-007	0
